.ifndef BATTLE_I
BATTLE_I = 1

.include	"./tunables.i"

ENEMY_PTR_ATT		=	$00
ENEMY_PTR_DEF		=	$01
ENEMY_PTR_HP		=	$02
ENEMY_PTR_SPELL		=	$03
ENEMY_PTR_AGI		=	$04
ENEMY_PTR_MDEF		=	$05
ENEMY_PTR_EXP		=	$06
ENEMY_PTR_GOLD		=	$07
ENEMY_PTR_DESC		=	$08
ENEMY_PTR_STACK		=	ENEMY_PTR_DESC+ENEMY_NAME_LEN
ptr_enemy_size		=	ENEMY_PTR_STACK

.endif	; BATTLE_I