.ifndef BSSMAP_I
BSSMAP_I = 1

STACK_BASE	= $100
STACK_END	= $200
OAM_BUFFER	= STACK_END
OAM_BUFFER_2	= $240
PPU_NMI_BUFFER	= $300
CNROM_BUFFER	= $340
CNROM_BUFFER2	= $360
CNROM_BUFFER2_5	= $3A0
CNROM_BUFFER3	= $3C0
GAME_BUFFER	= $400
LOWMEM_END	= $800

.endif	; BSSMAP_I
