.ifndef CHARMAP_I
CHARMAP_I = 1

.include "./tunables.i"

CHAR_CTRL_PRINT3	=	$F0
CHAR_CTRL_PRINT5	=	$F1
CHAR_CTRL_PRINTNAME	=	$F2
CHAR_CTRL_SKIPFIELD	=	$F3
CHAR_CTRL_RLE		=	$F7
CHAR_CTRL_DAKUTEN	=	$F8
CHAR_CTRL_HANDAKUTEN	=	$F9
CHAR_CTRL_STREND	=	$FA
CHAR_CTRL_SCROLL	=	$FB
CHAR_CTRL_WINDOW_NEWLINE =	$FC
CHAR_CTRL_PRINTBUF	=	$FD
CHAR_CTRL_CONTENT_NEWLINE =	$FE
CHAR_CTRL_END		=	$FF

	.charmap	'0', ENG_FONT_TILE_BASE+$00
	.charmap	'1', ENG_FONT_TILE_BASE+$01
	.charmap	'2', ENG_FONT_TILE_BASE+$02
	.charmap	'3', ENG_FONT_TILE_BASE+$03
	.charmap	'4', ENG_FONT_TILE_BASE+$04
	.charmap	'5', ENG_FONT_TILE_BASE+$05
	.charmap	'6', ENG_FONT_TILE_BASE+$06
	.charmap	'7', ENG_FONT_TILE_BASE+$07
	.charmap	'8', ENG_FONT_TILE_BASE+$08
	.charmap	'9', ENG_FONT_TILE_BASE+$09

CHAR_HIRA_A	=	(ENG_FONT_TILE_BASE+$0A)
CHAR_HIRA_I	=	(ENG_FONT_TILE_BASE+$0B)
CHAR_HIRA_U	=	(ENG_FONT_TILE_BASE+$0C)
CHAR_HIRA_E	=	(ENG_FONT_TILE_BASE+$0D)
CHAR_HIRA_O	=	(ENG_FONT_TILE_BASE+$0E)
CHAR_HIRA_KA	=	(ENG_FONT_TILE_BASE+$0F)
CHAR_HIRA_GA	=	((CHAR_HIRA_KA<<8)|(CHAR_CTRL_DAKUTEN))
CHAR_HIRA_KI	=	(ENG_FONT_TILE_BASE+$10)
CHAR_HIRA_GI	=	((CHAR_HIRA_KI<<8)|(CHAR_CTRL_DAKUTEN))
CHAR_HIRA_KU	=	(ENG_FONT_TILE_BASE+$11)
CHAR_HIRA_GU	=	((CHAR_HIRA_KU<<8)|(CHAR_CTRL_DAKUTEN))
CHAR_HIRA_KE	=	(ENG_FONT_TILE_BASE+$12)
CHAR_HIRA_GE	=	((CHAR_HIRA_KE<<8)|(CHAR_CTRL_DAKUTEN))
CHAR_HIRA_KO	=	(ENG_FONT_TILE_BASE+$13)
CHAR_HIRA_GO	=	((CHAR_HIRA_KO<<8)|(CHAR_CTRL_DAKUTEN))
CHAR_HIRA_SA	=	(ENG_FONT_TILE_BASE+$14)
CHAR_HIRA_ZA	=	((CHAR_HIRA_SA<<8)|(CHAR_CTRL_DAKUTEN))
CHAR_HIRA_SHI	=	(ENG_FONT_TILE_BASE+$15)
CHAR_HIRA_JI	=	((CHAR_HIRA_SHI<<8)|(CHAR_CTRL_DAKUTEN))
CHAR_HIRA_SU	=	(ENG_FONT_TILE_BASE+$16)
CHAR_HIRA_ZU	=	((CHAR_HIRA_SU<<8)|(CHAR_CTRL_DAKUTEN))
CHAR_HIRA_SE	=	(ENG_FONT_TILE_BASE+$17)
CHAR_HIRA_ZE	=	((CHAR_HIRA_SE<<8)|(CHAR_CTRL_DAKUTEN))
CHAR_HIRA_SO	=	(ENG_FONT_TILE_BASE+$18)
CHAR_HIRA_ZO	=	((CHAR_HIRA_SO<<8)|(CHAR_CTRL_DAKUTEN))
CHAR_HIRA_TA	=	(ENG_FONT_TILE_BASE+$19)
CHAR_HIRA_DA	=	((CHAR_HIRA_TA<<8)|(CHAR_CTRL_DAKUTEN))
CHAR_HIRA_CHI	=	(ENG_FONT_TILE_BASE+$1A)
CHAR_HIRA_DI	=	((CHAR_HIRA_CHI<<8)|(CHAR_CTRL_DAKUTEN))
CHAR_HIRA_TSU	=	(ENG_FONT_TILE_BASE+$1B)
CHAR_HIRA_DU	=	((CHAR_HIRA_TSU<<8)|(CHAR_CTRL_DAKUTEN))
CHAR_HIRA_TE	=	(ENG_FONT_TILE_BASE+$1C)
CHAR_HIRA_DE	=	((CHAR_HIRA_TE<<8)|(CHAR_CTRL_DAKUTEN))
CHAR_HIRA_TO	=	(ENG_FONT_TILE_BASE+$1D)
CHAR_HIRA_DO	=	((CHAR_HIRA_TO<<8)|(CHAR_CTRL_DAKUTEN))
CHAR_HIRA_NA	=	(ENG_FONT_TILE_BASE+$1E)
CHAR_HIRA_NI	=	(ENG_FONT_TILE_BASE+$1F)
CHAR_HIRA_NU	=	(ENG_FONT_TILE_BASE+$20)
CHAR_HIRA_NE	=	(ENG_FONT_TILE_BASE+$21)
CHAR_HIRA_NO	=	(ENG_FONT_TILE_BASE+$22)
CHAR_HIRA_HA	=	(ENG_FONT_TILE_BASE+$23)
CHAR_HIRA_BA	=	((CHAR_HIRA_HA<<8)|(CHAR_CTRL_DAKUTEN))
CHAR_HIRA_PA	=	((CHAR_HIRA_HA<<8)|(CHAR_CTRL_HANDAKUTEN))
CHAR_HIRA_HI	=	(ENG_FONT_TILE_BASE+$24)
CHAR_HIRA_BI	=	((CHAR_HIRA_HI<<8)|(CHAR_CTRL_DAKUTEN))
CHAR_HIRA_PI	=	((CHAR_HIRA_HI<<8)|(CHAR_CTRL_HANDAKUTEN))
CHAR_HIRA_FU	=	(ENG_FONT_TILE_BASE+$25)
CHAR_HIRA_BU	=	((CHAR_HIRA_FU<<8)|(CHAR_CTRL_DAKUTEN))
CHAR_HIRA_PU	=	((CHAR_HIRA_FU<<8)|(CHAR_CTRL_HANDAKUTEN))
CHAR_HIRA_HE	=	(ENG_FONT_TILE_BASE+$26)
CHAR_KATA_HE	=	(ENG_FONT_TILE_BASE+$26)
CHAR_HIRA_BE	=	((CHAR_HIRA_HE<<8)|(CHAR_CTRL_DAKUTEN))
CHAR_KATA_BE	=	((CHAR_KATA_HE<<8)|(CHAR_CTRL_DAKUTEN))
CHAR_HIRA_PE	=	((CHAR_HIRA_HE<<8)|(CHAR_CTRL_HANDAKUTEN))
CHAR_KATA_PE	=	((CHAR_KATA_HE<<8)|(CHAR_CTRL_HANDAKUTEN))
CHAR_HIRA_HO	=	(ENG_FONT_TILE_BASE+$27)
CHAR_HIRA_BO	=	((CHAR_HIRA_HO<<8)|(CHAR_CTRL_DAKUTEN))
CHAR_HIRA_PO	=	((CHAR_HIRA_HO<<8)|(CHAR_CTRL_HANDAKUTEN))
CHAR_HIRA_MA	=	(ENG_FONT_TILE_BASE+$28)
CHAR_HIRA_MI	=	(ENG_FONT_TILE_BASE+$29)
CHAR_HIRA_MU	=	(ENG_FONT_TILE_BASE+$2A)
CHAR_HIRA_ME	=	(ENG_FONT_TILE_BASE+$2B)
CHAR_HIRA_MO	=	(ENG_FONT_TILE_BASE+$2C)
CHAR_HIRA_YA	=	(ENG_FONT_TILE_BASE+$2D)
CHAR_HIRA_YU	=	(ENG_FONT_TILE_BASE+$2E)
CHAR_HIRA_YO	=	(ENG_FONT_TILE_BASE+$2F)
CHAR_HIRA_RA	=	(ENG_FONT_TILE_BASE+$30)
CHAR_HIRA_RI	=	(ENG_FONT_TILE_BASE+$31)
CHAR_KATA_RI	=	(ENG_FONT_TILE_BASE+$31)
CHAR_HIRA_RU	=	(ENG_FONT_TILE_BASE+$32)
CHAR_HIRA_RE	=	(ENG_FONT_TILE_BASE+$33)
CHAR_HIRA_RO	=	(ENG_FONT_TILE_BASE+$34)
CHAR_HIRA_WA	=	(ENG_FONT_TILE_BASE+$35)
CHAR_HIRA_WO	=	(ENG_FONT_TILE_BASE+$36)
CHAR_HIRA_N	=	(ENG_FONT_TILE_BASE+$37)
CHAR_HIRA_TSU_S	=	(ENG_FONT_TILE_BASE+$38)
CHAR_HIRA_YA_S	=	(ENG_FONT_TILE_BASE+$39)
CHAR_HIRA_YU_S	=	(ENG_FONT_TILE_BASE+$3A)
CHAR_HIRA_YO_S	=	(ENG_FONT_TILE_BASE+$3B)

CHAR_W_BORD_W	=	(ENG_FONT_TILE_BASE+$3C)
CHAR_W_BORD_NA	=	(ENG_FONT_TILE_BASE+$3D)
CHAR_W_BORD_NB	=	(ENG_FONT_TILE_BASE+$3E)

CHAR_KATA_ME	=	(ENG_FONT_TILE_BASE+$3F)
CHAR_KATA_RA	=	(ENG_FONT_TILE_BASE+$40)
CHAR_KATA_RO	=	(ENG_FONT_TILE_BASE+$41)
CHAR_KATA_DO	=	(ENG_FONT_TILE_BASE+$42)
CHAR_KATA_RU	=	(ENG_FONT_TILE_BASE+$43)
CHAR_KATA_RE	=	(ENG_FONT_TILE_BASE+$44)
CHAR_KATA_KO	=	(ENG_FONT_TILE_BASE+$45)
CHAR_KATA_GO	=	((CHAR_KATA_KO<<8)|(CHAR_CTRL_DAKUTEN))
CHAR_KATA_N	=	(ENG_FONT_TILE_BASE+$46)
CHAR_KATA_TA	=	(ENG_FONT_TILE_BASE+$47)
CHAR_KATA_DA	=	((CHAR_KATA_TA<<8)|(CHAR_CTRL_DAKUTEN))
CHAR_KATA_SHI	=	(ENG_FONT_TILE_BASE+$48)
CHAR_KATA_JI	=	((CHAR_KATA_SHI<<8)|(CHAR_CTRL_DAKUTEN))
CHAR_KATA_HO	=	(ENG_FONT_TILE_BASE+$49)
CHAR_KATA_PO	=	((CHAR_KATA_HO<<8)|(CHAR_CTRL_HANDAKUTEN))
CHAR_KATA_I	=	(ENG_FONT_TILE_BASE+$4A)
CHAR_KATA_MA	=	(ENG_FONT_TILE_BASE+$4B)
CHAR_KATA_KA	=	(ENG_FONT_TILE_BASE+$4C)
CHAR_KATA_GA	=	((CHAR_KATA_KA<<8)|(CHAR_CTRL_DAKUTEN))
CHAR_KATA_MU	=	(ENG_FONT_TILE_BASE+$4D)
CHAR_LONG_VOWEL	=	(ENG_FONT_TILE_BASE+$4E)
CHAR_KANA_PERIOD	= (ENG_FONT_TILE_BASE+$4F)
CHAR_FONT_STD_END	= CHAR_KANA_PERIOD

	.charmap	',', ENG_FONT_TILE_BASE+$50

CHAR_DAKUTEN_LO		= (ENG_FONT_TILE_BASE+$51)
CHAR_HANDAKUTEN_LO	= (ENG_FONT_TILE_BASE+$52)
CHAR_DAKUTEN_HI		= (ENG_FONT_TILE_BASE+$53)
CHAR_HANDAKUTEN_HI	= (ENG_FONT_TILE_BASE+$54)

	.charmap	'*', ENG_FONT_TILE_BASE+$55

CHAR_ARROW_RIGHT	= (ENG_FONT_TILE_BASE+$56)
CHAR_ARROW_DOWN		= (ENG_FONT_TILE_BASE+$57)

	.charmap	':', ENG_FONT_TILE_BASE+$58

CHAR_W_BORD_NW	=	$59
CHAR_W_BORD_NE	=	$5A
CHAR_W_BORD_E	=	$5B
CHAR_W_BORD_SW	=	$5C
CHAR_W_BORD_S	=	$5D
CHAR_W_BORD_SE	=	$5E

	.charmap	' ', ENG_FONT_TILE_BASE+$5F
	.charmap	'?', ENG_FONT_TILE_BASE+$60
	.charmap	'!', ENG_FONT_TILE_BASE+$61

CHAR_QUOTE_MARK	=	$62

	.charmap	'H', ENG_FONT_TILE_BASE+$63
	.charmap	'M', ENG_FONT_TILE_BASE+$64
	.charmap	'P', ENG_FONT_TILE_BASE+$65
	.charmap	'G', ENG_FONT_TILE_BASE+$66
	.charmap	'E', ENG_FONT_TILE_BASE+$67

CHAR_KATA_MI	=	$68
CHAR_KATA_SU	=	$69
CHAR_KATA_ZU	=	((CHAR_KATA_SU<<8)|(CHAR_CTRL_DAKUTEN))
CHAR_KATA_KI	=	$6A
CHAR_KATA_GI	=	((CHAR_KATA_KI<<8)|(CHAR_CTRL_DAKUTEN))
CHAR_KATA_TO	= 	$6B
CHAR_ELLIPSES	=	$6C
CHAR_FONT_SUP_START	= 'H'
CHAR_FONT_SUP_END	= CHAR_ELLIPSES

CHAR_STR_BASE		=	$6D
CHAR_STR_QUOTE		=	CHAR_STR_BASE+$00
CHAR_STR_QUOTE_LORA 	=	CHAR_STR_BASE+$01
CHAR_STR_EMPTY		=	CHAR_STR_BASE+$02
CHAR_STR_TOWN_01	=	CHAR_STR_BASE+$03
CHAR_STR_RUMOR		=	CHAR_STR_BASE+$04
CHAR_STR_WELCOME	=	CHAR_STR_BASE+$05
CHAR_STR_WERE		=	CHAR_STR_BASE+$06
CHAR_STR_TOWN_02	=	CHAR_STR_BASE+$07
CHAR_STR_TELL		=	CHAR_STR_BASE+$08
CHAR_STR_TOWN_03	=	CHAR_STR_BASE+$09
CHAR_STR_TOWN_04	=	CHAR_STR_BASE+$0A
CHAR_STR_DO		=	CHAR_STR_BASE+$0B
CHAR_STR_WELL		=	CHAR_STR_BASE+$0C
CHAR_STR_IS_BE		=	CHAR_STR_BASE+$0D
CHAR_STR_IS_DO		=	CHAR_STR_BASE+$0E
CHAR_STR_THANKYOU	=	CHAR_STR_BASE+$0F
CHAR_STR_ZERO_0		=	CHAR_STR_BASE+$10
CHAR_STR_ZERO_1		=	CHAR_STR_BASE+$11
CHAR_STR_STAIRS		=	CHAR_STR_BASE+$12

CHAR_STR_SPELL_01 =	CHAR_STR_BASE+$13
CHAR_STR_SPELL_02 =	CHAR_STR_BASE+$14
CHAR_STR_SPELL_03 =	CHAR_STR_BASE+$15
CHAR_STR_SPELL_04 =	CHAR_STR_BASE+$16
CHAR_STR_SPELL_05 =	CHAR_STR_BASE+$17
CHAR_STR_SPELL_06 =	CHAR_STR_BASE+$18
CHAR_STR_SPELL_07 =	CHAR_STR_BASE+$19
CHAR_STR_SPELL_08 =	CHAR_STR_BASE+$1A
CHAR_STR_SPELL_09 =	CHAR_STR_BASE+$1B
CHAR_STR_SPELL_10 =	CHAR_STR_BASE+$1C
CHAR_STR_LEVEL	=	CHAR_STR_BASE+$1D
CHAR_STR_WEAPON_1 =	CHAR_STR_BASE+$1E
CHAR_STR_WEAPON_2 =	CHAR_STR_BASE+$1F
CHAR_STR_WEAPON_3 =	CHAR_STR_BASE+$20
CHAR_STR_WEAPON_4 =	CHAR_STR_BASE+$21
CHAR_STR_WEAPON_5 =	CHAR_STR_BASE+$22
CHAR_STR_WEAPON_6 =	CHAR_STR_BASE+$23
CHAR_STR_WEAPON_7 =	CHAR_STR_BASE+$24
CHAR_STR_ARMOR_1 =	CHAR_STR_BASE+$25
CHAR_STR_ARMOR_2 =	CHAR_STR_BASE+$26
CHAR_STR_ARMOR_3 =	CHAR_STR_BASE+$27
CHAR_STR_ARMOR_4 =	CHAR_STR_BASE+$28
CHAR_STR_ARMOR_5 =	CHAR_STR_BASE+$29
CHAR_STR_ARMOR_6 =	CHAR_STR_BASE+$2A
CHAR_STR_ARMOR_7 =	CHAR_STR_BASE+$2B
CHAR_STR_SHIELD_1 =	CHAR_STR_BASE+$2C
CHAR_STR_SHIELD_2 =	CHAR_STR_BASE+$2D
CHAR_STR_SHIELD_3 =	CHAR_STR_BASE+$2E
CHAR_STR_WEAPON	=	CHAR_STR_BASE+$2F
CHAR_STR_ARMOR	=	CHAR_STR_BASE+$30
CHAR_STR_TRUTH	=	CHAR_STR_BASE+$31
CHAR_STR_POWER	=	CHAR_STR_BASE+$32

CHAR_STR_TOOL_01 =	CHAR_STR_BASE+$33
CHAR_STR_TOOL_02 =	CHAR_STR_BASE+$34
CHAR_STR_TOOL_03 =	CHAR_STR_BASE+$35
CHAR_STR_TOOL_04 =	CHAR_STR_BASE+$36
CHAR_STR_TOOL_05 =	CHAR_STR_BASE+$37
CHAR_STR_TOOL_06 =	CHAR_STR_BASE+$38
CHAR_STR_TOOL_07 =	CHAR_STR_BASE+$39
CHAR_STR_TOOL_08 =	CHAR_STR_BASE+$3A
CHAR_STR_TOOL_09 =	CHAR_STR_BASE+$3B
CHAR_STR_TOOL_10 =	CHAR_STR_BASE+$3C
CHAR_STR_TOOL_11 =	CHAR_STR_BASE+$3D
CHAR_STR_TOOL_12 =	CHAR_STR_BASE+$3E
CHAR_STR_TOOL_13 =	CHAR_STR_BASE+$3F
CHAR_STR_TOOL_14 =	CHAR_STR_BASE+$40
CHAR_STR_TOOL_15 =	CHAR_STR_BASE+$41
CHAR_STR_TOOL_16 =	CHAR_STR_BASE+$42

CHAR_STR_HOWEVER = 	CHAR_STR_BASE+$43
CHAR_STR_SPELL	=	CHAR_STR_BASE+$44
CHAR_STR_YOU	=	CHAR_STR_BASE+$45
CHAR_STR_YET	=	CHAR_STR_BASE+$46
CHAR_STR_MORE_THAN =	CHAR_STR_BASE+$47
CHAR_STR_BADNEWS =	CHAR_STR_BASE+$48
CHAR_STR_BROKE	=	CHAR_STR_BASE+$49
CHAR_STR_WHAT	=	CHAR_STR_BASE+$4A
CHAR_STR_WHICH	=	CHAR_STR_BASE+$4B
CHAR_STR_WHAT_IS =	CHAR_STR_BASE+$4C
CHAR_STR_PUT	=	CHAR_STR_BASE+$4D
CHAR_STR_FOUND	=	CHAR_STR_BASE+$4E
CHAR_STR_MYSELF	=	CHAR_STR_BASE+$4F
CHAR_STR_LORA	=	CHAR_STR_BASE+$50
CHAR_STR_PRINCESS =	CHAR_STR_BASE+$51
CHAR_STR_IT_IS	=	CHAR_STR_BASE+$52
CHAR_STR_POEM_1	=	CHAR_STR_BASE+$53
CHAR_STR_HELP	=	CHAR_STR_BASE+$54
CHAR_STR_THANKYOU_2 =	CHAR_STR_BASE+$55
CHAR_STR_PLEASE	=	CHAR_STR_BASE+$56
CHAR_STR_HONOR_LOW =	CHAR_STR_BASE+$57
CHAR_STR_HONOR_HIGH =	CHAR_STR_BASE+$58
CHAR_STR_THIS	=	CHAR_STR_BASE+$59
CHAR_STR_THAT	=	CHAR_STR_BASE+$5A
CHAR_STR_APPEAR	=	CHAR_STR_BASE+$5B
CHAR_STR_GOOD	=	CHAR_STR_BASE+$5C
CHAR_STR_PLEASE_2 =	CHAR_STR_BASE+$5D
CHAR_STR_BRAVE	=	CHAR_STR_BASE+$5E
CHAR_STR_SHOULD	=	CHAR_STR_BASE+$5F
CHAR_STR_SEARCH	=	CHAR_STR_BASE+$60
CHAR_STR_CERTAINLY =	CHAR_STR_BASE+$61
CHAR_STR_SOMEWHERE =	CHAR_STR_BASE+$62
CHAR_STR_NEED	=	CHAR_STR_BASE+$63
CHAR_STR_YOU_2	=	CHAR_STR_BASE+$64
CHAR_STR_WHITE	=	CHAR_STR_BASE+$65
CHAR_STR_STORY	=	CHAR_STR_BASE+$66
CHAR_STR_CITY	=	CHAR_STR_BASE+$67
CHAR_STR_MONSTERS =	CHAR_STR_BASE+$68
CHAR_STR_THANKYOU_3 =	CHAR_STR_BASE+$69

CHAR_HIRA_GA_B	=	CHAR_STR_BASE+$6A
CHAR_HIRA_GI_B	=	CHAR_STR_BASE+$6B
CHAR_HIRA_GU_B	=	CHAR_STR_BASE+$6C
CHAR_HIRA_GE_B	=	CHAR_STR_BASE+$6D
CHAR_HIRA_GO_B	=	CHAR_STR_BASE+$6E
CHAR_HIRA_ZA_B	=	CHAR_STR_BASE+$6F
CHAR_HIRA_JI_B	=	CHAR_STR_BASE+$70
CHAR_HIRA_ZU_B	=	CHAR_STR_BASE+$71
CHAR_HIRA_ZE_B	=	CHAR_STR_BASE+$72
CHAR_HIRA_ZO_B	=	CHAR_STR_BASE+$73
CHAR_HIRA_DA_B	=	CHAR_STR_BASE+$74
CHAR_HIRA_DI_B	=	CHAR_STR_BASE+$75
CHAR_HIRA_DU_B	=	CHAR_STR_BASE+$76
CHAR_HIRA_DE_B	=	CHAR_STR_BASE+$77
CHAR_HIRA_DO_B	=	CHAR_STR_BASE+$78
CHAR_HIRA_BA_B	=	CHAR_STR_BASE+$79
CHAR_HIRA_BI_B	=	CHAR_STR_BASE+$7A
CHAR_HIRA_BU_B	=	CHAR_STR_BASE+$7B
CHAR_HIRA_BE_B	=	CHAR_STR_BASE+$7C
CHAR_KATA_BE_B	=	CHAR_STR_BASE+$7C
CHAR_HIRA_BO_B	=	CHAR_STR_BASE+$7D
CHAR_HIRA_PA_B	=	CHAR_STR_BASE+$7E
CHAR_HIRA_PI_B	=	CHAR_STR_BASE+$7F
CHAR_HIRA_PU_B	=	CHAR_STR_BASE+$80
CHAR_HIRA_PE_B	=	CHAR_STR_BASE+$81
CHAR_KATA_PE_B	=	CHAR_STR_BASE+$81
CHAR_HIRA_PO_B	=	CHAR_STR_BASE+$82

.endif	; CHARMAP_I