.ifndef	GENERAL_BSS_I
GENERAL_BSS_I = 1

	.import		general_byte_2: zeropage
	.import		general_word_0: zeropage	
	.import		general_word_1: zeropage
	.import		general_word_2: zeropage
	.import		ppu_pal_load_cutoff: zeropage
	.import		nt_calc_column: zeropage
	.import		nt_calc_row: zeropage
	.import		math_result: zeropage
	.import		math_mulw_b: zeropage
	.import		math_mulw_a: zeropage
	.import		math_div_a: zeropage
	.import		math_div_b: zeropage
	.import		old_rand_word: zeropage
	.import		map_eng_number: zeropage
	.import		map_npc_xpos: zeropage
	.import		map_npc_ypos: zeropage
	.import		window_block_x: zeropage
	.import		window_block_y: zeropage
	.import		cnrom_load_src: zeropage
	.import		cnrom_load_dest: zeropage
	.import		cnrom_load_count: zeropage
	.import		ppu_pal_fade_idx: zeropage
	.import		window_itemname_ptr: zeropage
	.import		area_check_retval: zeropage
	.import		general_byte_3: zeropage
	.import		general_byte_4: zeropage
	.import		general_byte_0: zeropage
	.import		cnrom_load_bank: zeropage
	.import		cnrom_load_page_size: zeropage
	.import		battle_palette_addr: zeropage
	.import		general_word_3: zeropage
	.import		battle_enemy_chr_index: zeropage
	.import		battle_fight_attack: zeropage
	.import		battle_fight_defense: zeropage	
	.import		battle_fight_hit: zeropage
	.import		rpg_debuff_high: zeropage
	.import		rpg_debuff_low: zeropage
	.import		map_blk_col: zeropage
	.import		map_blk_row: zeropage
	.import		map_blkid: zeropage
	.import		dialog_sale_gold_diff: zeropage
	.import		dialog_string_ptr: zeropage
	.import		reward_add_mask: zeropage
	.import		stats_level_tbl_idx: zeropage
	.import		battle_fight_diff: zeropage

.endif	; GENERAL_BSS_I