.ifndef	PASSWORD_I
PASSWORD_I = 1

	.enum	pw_byte
		exp_0
		name_2
		inv_1
		gold_0
		name_0
		inv_3
		name_3
		equip
		gold_1
		herbs
		inv_2
		exp_1
		name_1
		inv_0
	.endenum

PASSWORD_CURSED_NECKLACE_BIT    = %01000000
PASSWORD_SCALE_BIT              = %10000000
PASSWORD_RING_BIT               = %00000001

PASSWORD_NAME_0_RAND_BIT	= %00000001
PASSWORD_NAME_2_RAND_BIT	= %10000000
PASSWORD_NAME_3_RAND_BIT	= %10000000

PASSWORD_BUF_SIZE	= 15
PASSWORD_CHAR_MASK	= %00111111
PASSWORD_CHAR_INCR	= 4
PASSWORD_ENC_COUNT	= 6

.endif	; PASSWORD_I
