.ifndef TUNABLES_I
TUNABLES_I = 1

.include    "system/ppu.i"

PPU_NMI_HIGH_COUNT	=	8

PPU_NMI_WRITE_MAX	=	$C0

PPU_PAL_FADE_INCR	=	$10
PPU_PAL_FADEOUT_START	=	$00
PPU_PAL_FADEOUT_END	=	$50
PPU_PAL_FADEIN_START	=	$30
PPU_PAL_FADEIN_END	=	<-$10
PPU_PAL_FADEFRAMES	=	4

PPU_PAL_OBJ_MAX		=	$31
PPU_PAL_BG_MAX		=	$61

PPU_H_INIT		=	8
PPU_V_INIT		=	7

MAP_MAX			=	$31

DOOR_MAX		=	$20
CHEST_MAX		=	$20

GAME_BUFFER_CLEAR	=	$FF

MAP_MOVE_VAL		=	8

GAME_MENU_POPFRAME	=	50

STAT_LEVEL_SIZE		=	6

LEVEL_MAX		=	((tbl_levelstats_end-tbl_levelstats)/STAT_LEVEL_SIZE)

INV_ITEM_MAX		=	4

SPELL_GLOW_DIA_INCR	=	$02
SPELL_GLOW_DIA_MIN	=	$03
SPELL_GLOW_DIA_MAX	=	$07
SPELL_GLOW_TIME_MAX	=	$50
SPELL_GLOW_SHRINK_TIME	=	$3C
SPELL_PROTECT_TIME_MAX	=	$FF
SPELL_HEAL_BASE		=	$0A
HERB_HEAL_BASE		=	$17
SPELL_HEAL_ENEMYBASE	=	$14
SPELL_HEAL_MAXOFFSET	=	$07
HERB_HEAL_MAXOFFSET	=	$07
SPELL_SIZZ_BASE		=	$05
SPELL_SIZZ_ENEMYBASE	=	$03
SPELL_SIZZ_ENEMYCRIT	=	$1E
SPELL_SIZZ_MAXOFFSET	=	$07
SPELL_SIZZ_CRITOFFSET	=	$0F
SPELL_MIDHEAL_BASE	=	$55
SPELL_MIDHEAL_MAXOFFSET	=	$0F
SPELL_SIZZLE_BASE	=	$3A
SPELL_SIZZLE_ENEMYBASE	=	$41
SPELL_SIZZLE_ENEMYMASK	=	$10
SPELL_SIZZLE_MAXOFFSET	=	SPELL_SIZZ_MAXOFFSET

AXE_KNIGHT_X	= $12
AXE_KNIGHT_Y	= $0C

GREENDRAGON_X	= $04
GREENDRAGON_Y	= $0E

GOLEM_X		= $49
GOLEM_Y		= $64

LORA_XPOS_MIN	= $C7
LORA_XPOS_MAX	= $CA
LORA_YPOS	= 7
LORA_OFFSET	= $10

SHOP_LIST_END	= $FD

FAIRY_COST	= $26

NPC_INKEEP_START	= $11

MSG_SPEED_LOW	= $0
MSG_SPEED_FAST	= $2
MSG_SPEED_MID	= ((MSG_SPEED_FAST-MSG_SPEED_LOW)/2)

PPU_COLOR_NULL	= PPU_COLOR_LEV0|PPU_COLOR_BLACK

MAP_BOTTOM  = PPU_SCANLINE_240

HERB_MAX	= 6
KEY_MAX		= 6

ANI_FRAME_COUNT_MASK	= $0F
ANI_OBJ_FRAME_ID	= 1
ANI_WIN_FRAME_ID	= $0C

TILES_PER_LINE	= $20

RPG_DEBUFF_DIVIDEND  = 9
RPG_DEBUFF_DIVISOR   = 10

RPG_BUFF_DEF_SCALE   = 2

ENEMYGROUP_SIZE = 5

ENEMY_SPRITE_REVERSE_BIT	= $8000

ENG_FONT_TILE_BASE	= 0
ENG_FONT2_TILE_BASE	= 13

NPC_TABLE_END		= $FF

ENEMY_NAME_LEN	= 8

.endif  ; TUNABLES_I
