.ifndef CNROM_I
CNROM_I = 1

CNROM_BANK_INDEX_0	.set	0
CNROM_BANK_INDEX_0_H	.set	0
CNROM_BANK_INDEX_1	.set	(1<<5)
CNROM_BANK_INDEX_1_H	.set	(CNROM_BANK_INDEX_1<<8)
CNROM_BANK_INDEX_2	.set	(2<<5)
CNROM_BANK_INDEX_2_H	.set	(CNROM_BANK_INDEX_2<<8)
CNROM_BANK_INDEX_3	.set	(3<<5)
CNROM_BANK_INDEX_3_H	.set	(CNROM_BANK_INDEX_3<<8)

CNROM_SECURITY_BITS	=	$30

.endif	; CNROM_I
