.ifndef	TBL_WINDOWS_I
TBL_WINDOWS_I = 1

MAIN_X			= 2
MAIN_Y			= 2
MAIN_FIELD_WIDTH	= 8
MAIN_FIELD_HEIGHT	= 7

MAIN_BATTLE_WIDTH	= 20
MAIN_BATTLE_HEIGHT	= 8

STATS_X			= 6
STATS_Y			= 3
STATS_WIDTH		= 14
STATS_HEIGHT		= 12

DIALOG_X		= 3
DIALOG_Y		= 9
DIALOG_WIDTH		= 20
DIALOG_HEIGHT		= 6

CMD_X			= 7
CMD_Y			= 1
CMD_WIDTH		= 14
CMD_FIELD_HEIGHT	= 6
CMD_BATTLE_HEIGHT	= 4

TALK_DIR_X		= 6
TALK_DIR_Y		= 2
TALK_DIR_WIDTH		= 10
TALK_DIR_HEIGHT		= 5

SPELL_X			= 10
SPELL_Y			= 2
SPELL_WIDTH		= 8
SPELL_HEIGHT		= 12

TOOL_X			= 10
TOOL_Y			= 3
TOOL_WIDTH		= 10
TOOL_HEIGHT		= 12

SHOP_X			= 6
SHOP_Y			= 2
SHOP_WIDTH		= 16
SHOP_HEIGHT		= 9

DECISION_X		= 6
DECISION_Y		= 2
DECISION_WIDTH		= 10
DECISION_HEIGHT		= 4

BUYSELL_X		= 6
BUYSELL_Y		= 2
BUYSELL_WIDTH		= 12
BUYSELL_HEIGHT		= 4

.endif